sim/rtl_sim/pc.vcd
$date
	Fri Apr 15 20:16:04 2022
$end
$version
	Icarus Verilog
$end
$timescale
	1ps
$end
$scope module pc_tb $end
$var wire 1 ! clk_w_i $end
$var wire 32 " pc_w_i [31:0] $end
$var wire 1 # res_w_i_h $end
$var wire 32 $ instr_w_o [31:0] $end
$var reg 1 % clk_tb_i $end
$var reg 32 & pc_tb_i [31:0] $end
$var reg 32 ' prev_count [31:0] $end
$var reg 1 ( res_tb_i_h $end
$var integer 32 ) errors [31:0] $end
$var integer 32 * i [31:0] $end
$var integer 32 + num_trials [31:0] $end
$var integer 32 , res_done [31:0] $end
$scope begin genblk1 $end
$upscope $end
$scope module duv $end
$var wire 1 ! clk_w_i $end
$var wire 32 - instr_w_o [31:0] $end
$var wire 32 . pc_w_i [31:0] $end
$var wire 1 # res_w_i_h $end
$var reg 32 / curr_instr_r [31:0] $end
$upscope $end
$upscope $end
$enddefinitions $end
#0
$dumpvars
bx /
bx .
bx -
b0 ,
b10011100010000 +
bx *
b0 )
x(
bx '
bx &
0%
bx $
x#
bx "
0!
$end
#1000
1!
1%
#2000
0!
0%
#3000
1!
1%
#4000
0!
0%
#5000
1!
1%
#6000
0!
0%
#7000
1!
1%
#8000
0!
0%
#9000
1!
1%
#10000
0!
0%
0#
0(
#11000
1!
1%
#12000
0!
0%
#13000
1!
1%
#14000
0!
0%
#15000
1!
1%
#16000
0!
0%
#17000
1!
1%
#18000
0!
0%
#19000
1!
1%
#20000
b0 $
b0 -
b0 /
0!
0%
1#
1(
#21000
1!
1%
#22000
0!
0%
#23000
1!
1%
#24000
0!
0%
#25000
1!
1%
#26000
0!
0%
#27000
1!
1%
#28000
0!
0%
#29000
1!
1%
#30000
0!
0%
b10010010000101010011010100100100 "
b10010010000101010011010100100100 .
b10010010000101010011010100100100 &
b0 *
0#
0(
#31000
b1000000100010010101111010000001 $
b1000000100010010101111010000001 -
b1000000100010010101111010000001 /
b1 ,
b0 '
b1000000100010010101111010000001 "
b1000000100010010101111010000001 .
b1000000100010010101111010000001 &
b1 *
1!
1%
#32000
0!
0%
#33000
b100100001001101011000001001 $
b100100001001101011000001001 -
b100100001001101011000001001 /
b1000000100010010101111010000001 '
b100100001001101011000001001 "
b100100001001101011000001001 .
b100100001001101011000001001 &
b10 *
1!
1%
#34000
0!
0%
#35000
b110001111100000101011001100011 $
b110001111100000101011001100011 -
b110001111100000101011001100011 /
b100100001001101011000001001 '
b110001111100000101011001100011 "
b110001111100000101011001100011 .
b110001111100000101011001100011 &
b11 *
1!
1%
#36000
0!
0%
#37000
b10000110101110010111101100001101 $
b10000110101110010111101100001101 -
b10000110101110010111101100001101 /
b110001111100000101011001100011 '
b10000110101110010111101100001101 "
b10000110101110010111101100001101 .
b10000110101110010111101100001101 &
b100 *
1!
1%
#38000
0!
0%
#39000
b11000110110111111001100110001101 $
b11000110110111111001100110001101 -
b11000110110111111001100110001101 /
b10000110101110010111101100001101 '
b11000110110111111001100110001101 "
b11000110110111111001100110001101 .
b11000110110111111001100110001101 &
b101 *
1!
1%
#40000
0!
0%
#41000
b110010110000101000010001100101 $
b110010110000101000010001100101 -
b110010110000101000010001100101 /
b11000110110111111001100110001101 '
b110010110000101000010001100101 "
b110010110000101000010001100101 .
b110010110000101000010001100101 &
b110 *
1!
1%
#42000
0!
0%
#43000
b1001001101110101001000010010 $
b1001001101110101001000010010 -
b1001001101110101001000010010 /
b110010110000101000010001100101 '
b1001001101110101001000010010 "
b1001001101110101001000010010 .
b1001001101110101001000010010 &
b111 *
1!
1%
#44000
0!
0%
#45000
b10000000111100111110001100000001 $
b10000000111100111110001100000001 -
b10000000111100111110001100000001 /
b1001001101110101001000010010 '
b10000000111100111110001100000001 "
b10000000111100111110001100000001 .
b10000000111100111110001100000001 &
b1000 *
1!
1%
#46000
0!
0%
#47000
b10000110110101111100110100001101 $
b10000110110101111100110100001101 -
b10000110110101111100110100001101 /
b10000000111100111110001100000001 '
b10000110110101111100110100001101 "
b10000110110101111100110100001101 .
b10000110110101111100110100001101 &
b1001 *
1!
1%
#48000
0!
0%
#49000
b10111011001000111111000101110110 $
b10111011001000111111000101110110 -
b10111011001000111111000101110110 /
b10000110110101111100110100001101 '
b10111011001000111111000101110110 "
b10111011001000111111000101110110 .
b10111011001000111111000101110110 &
b1010 *
1!
1%
#50000
0!
0%
#51000
b10011110100011011100110100111101 $
b10011110100011011100110100111101 -
b10011110100011011100110100111101 /
b10111011001000111111000101110110 '
b10011110100011011100110100111101 "
b10011110100011011100110100111101 .
b10011110100011011100110100111101 &
b1011 *
1!
1%
#52000
0!
0%
#53000
b11110110110101000101011111101101 $
b11110110110101000101011111101101 -
b11110110110101000101011111101101 /
b10011110100011011100110100111101 '
b11110110110101000101011111101101 "
b11110110110101000101011111101101 .
b11110110110101000101011111101101 &
b1100 *
1!
1%
#54000
0!
0%
#55000
b11000110001011011111011110001100 $
b11000110001011011111011110001100 -
b11000110001011011111011110001100 /
b11110110110101000101011111101101 '
b11000110001011011111011110001100 "
b11000110001011011111011110001100 .
b11000110001011011111011110001100 &
b1101 *
1!
1%
#56000
0!
0%
#57000
b11111100111111011110100111111001 $
b11111100111111011110100111111001 -
b11111100111111011110100111111001 /
b11000110001011011111011110001100 '
b11111100111111011110100111111001 "
b11111100111111011110100111111001 .
b11111100111111011110100111111001 &
b1110 *
1!
1%
#58000
0!
0%
#59000
b1100011001101110010010011000110 $
b1100011001101110010010011000110 -
b1100011001101110010010011000110 /
b11111100111111011110100111111001 '
b1100011001101110010010011000110 "
b1100011001101110010010011000110 .
b1100011001101110010010011000110 &
b1111 *
1!
1%
#60000
0!
0%
#61000
b1100010111101111000010011000101 $
b1100010111101111000010011000101 -
b1100010111101111000010011000101 /
b1100011001101110010010011000110 '
b1100010111101111000010011000101 "
b1100010111101111000010011000101 .
b1100010111101111000010011000101 &
b10000 *
1!
1%
#62000
0!
0%
#63000
b1010101000100111101001010101010 $
b1010101000100111101001010101010 -
b1010101000100111101001010101010 /
b1100010111101111000010011000101 '
b1010101000100111101001010101010 "
b1010101000100111101001010101010 .
b1010101000100111101001010101010 &
b10001 *
1!
1%
#64000
0!
0%
#65000
b11110010101011111111011111100101 $
b11110010101011111111011111100101 -
b11110010101011111111011111100101 /
b1010101000100111101001010101010 '
b11110010101011111111011111100101 "
b11110010101011111111011111100101 .
b11110010101011111111011111100101 &
b10010 *
1!
1%
#66000
0!
0%
#67000
b111011110100100111001001110111 $
b111011110100100111001001110111 -
b111011110100100111001001110111 /
b11110010101011111111011111100101 '
b111011110100100111001001110111 "
b111011110100100111001001110111 .
b111011110100100111001001110111 &
b10011 *
1!
1%
#68000
0!
0%
#69000
b1001001100101101011000010010 $
b1001001100101101011000010010 -
b1001001100101101011000010010 /
b111011110100100111001001110111 '
b1001001100101101011000010010 "
b1001001100101101011000010010 .
b1001001100101101011000010010 &
b10100 *
1!
1%
#70000
0!
0%
#71000
b11000111111011001101101110001111 $
b11000111111011001101101110001111 -
b11000111111011001101101110001111 /
b1001001100101101011000010010 '
b11000111111011001101101110001111 "
b11000111111011001101101110001111 .
b11000111111011001101101110001111 &
b10101 *
1!
1%
#72000
0!
0%
#73000
b11111001001100000110100111110010 $
b11111001001100000110100111110010 -
b11111001001100000110100111110010 /
b11000111111011001101101110001111 '
b11111001001100000110100111110010 "
b11111001001100000110100111110010 .
b11111001001100000110100111110010 &
b10110 *
1!
1%
#74000
0!
0%
#75000
b1100111011101101001011011001110 $
b1100111011101101001011011001110 -
b1100111011101101001011011001110 /
b11111001001100000110100111110010 '
b1100111011101101001011011001110 "
b1100111011101101001011011001110 .
b1100111011101101001011011001110 &
b10111 *
1!
1%
#76000
0!
0%
#77000
b1110100000000000111101011101000 $
b1110100000000000111101011101000 -
b1110100000000000111101011101000 /
b1100111011101101001011011001110 '
b1110100000000000111101011101000 "
b1110100000000000111101011101000 .
b1110100000000000111101011101000 &
b11000 *
1!
1%
#78000
0!
0%
#79000
b1100010110010100100111011000101 $
b1100010110010100100111011000101 -
b1100010110010100100111011000101 /
b1110100000000000111101011101000 '
b1100010110010100100111011000101 "
b1100010110010100100111011000101 .
b1100010110010100100111011000101 &
b11001 *
1!
1%
#80000
0!
0%
#81000
b10101110010110000100100101011100 $
b10101110010110000100100101011100 -
b10101110010110000100100101011100 /
b1100010110010100100111011000101 '
b10101110010110000100100101011100 "
b10101110010110000100100101011100 .
b10101110010110000100100101011100 &
b11010 *
1!
1%
#82000
0!
0%
#83000
b1011110100011100010100010111101 $
b1011110100011100010100010111101 -
b1011110100011100010100010111101 /
b10101110010110000100100101011100 '
b1011110100011100010100010111101 "
b1011110100011100010100010111101 .
b1011110100011100010100010111101 &
b11011 *
1!
1%
#84000
0!
0%
#85000
b10110101010110101100000101101 $
b10110101010110101100000101101 -
b10110101010110101100000101101 /
b1011110100011100010100010111101 '
b10110101010110101100000101101 "
b10110101010110101100000101101 .
b10110101010110101100000101101 &
b11100 *
1!
1%
#86000
0!
0%
#87000
b110010101001110010011001100101 $
b110010101001110010011001100101 -
b110010101001110010011001100101 /
b10110101010110101100000101101 '
b110010101001110010011001100101 "
b110010101001110010011001100101 .
b110010101001110010011001100101 &
b11101 *
1!
1%
#88000
0!
0%
#89000
b110001111011110110001001100011 $
b110001111011110110001001100011 -
b110001111011110110001001100011 /
b110010101001110010011001100101 '
b110001111011110110001001100011 "
b110001111011110110001001100011 .
b110001111011110110001001100011 &
b11110 *
1!
1%
#90000
0!
0%
#91000
b10000101011100111000011100001010 $
b10000101011100111000011100001010 -
b10000101011100111000011100001010 /
b110001111011110110001001100011 '
b10000101011100111000011100001010 "
b10000101011100111000011100001010 .
b10000101011100111000011100001010 &
b11111 *
1!
1%
#92000
0!
0%
#93000
b1000000001110110010001010000000 $
b1000000001110110010001010000000 -
b1000000001110110010001010000000 /
b10000101011100111000011100001010 '
b1000000001110110010001010000000 "
b1000000001110110010001010000000 .
b1000000001110110010001010000000 &
b100000 *
1!
1%
#94000
0!
0%
#95000
b10010000011001000010000100100000 $
b10010000011001000010000100100000 -
b10010000011001000010000100100000 /
b1000000001110110010001010000000 '
b10010000011001000010000100100000 "
b10010000011001000010000100100000 .
b10010000011001000010000100100000 &
b100001 *
1!
1%
#96000
0!
0%
#97000
b11010101011110000100010110101010 $
b11010101011110000100010110101010 -
b11010101011110000100010110101010 /
b10010000011001000010000100100000 '
b11010101011110000100010110101010 "
b11010101011110000100010110101010 .
b11010101011110000100010110101010 &
b100010 *
1!
1%
#98000
0!
0%
#99000
b1001110110011001100110010011101 $
b1001110110011001100110010011101 -
b1001110110011001100110010011101 /
b11010101011110000100010110101010 '
b1001110110011001100110010011101 "
b1001110110011001100110010011101 .
b1001110110011001100110010011101 &
b100011 *
1!
1%
#100000
0!
0%
#101000
b1001011001000000011111010010110 $
b1001011001000000011111010010110 -
b1001011001000000011111010010110 /
b1001110110011001100110010011101 '
b1001011001000000011111010010110 "
b1001011001000000011111010010110 .
b1001011001000000011111010010110 &
b100100 *
1!
1%
#102000
0!
0%
#103000
b1001100000111011100000010011 $
b1001100000111011100000010011 -
b1001100000111011100000010011 /
b1001011001000000011111010010110 '
b1001100000111011100000010011 "
b1001100000111011100000010011 .
b1001100000111011100000010011 &
b100101 *
1!
1%
#104000
0!
0%
#105000
b110101111000011100000001101 $
b110101111000011100000001101 -
b110101111000011100000001101 /
b1001100000111011100000010011 '
b110101111000011100000001101 "
b110101111000011100000001101 .
b110101111000011100000001101 &
b100110 *
1!
1%
#106000
0!
0%
#107000
b101001101001111101011001010011 $
b101001101001111101011001010011 -
b101001101001111101011001010011 /
b110101111000011100000001101 '
b101001101001111101011001010011 "
b101001101001111101011001010011 .
b101001101001111101011001010011 &
b100111 *
1!
1%
#108000
0!
0%
#109000
b10110101100111111101110101101011 $
b10110101100111111101110101101011 -
b10110101100111111101110101101011 /
b101001101001111101011001010011 '
b10110101100111111101110101101011 "
b10110101100111111101110101101011 .
b10110101100111111101110101101011 &
b101000 *
1!
1%
#110000
0!
0%
#111000
b1101010101001100010101011010101 $
b1101010101001100010101011010101 -
b1101010101001100010101011010101 /
b10110101100111111101110101101011 '
b1101010101001100010101011010101 "
b1101010101001100010101011010101 .
b1101010101001100010101011010101 &
b101001 *
1!
1%
#112000
0!
0%
#113000
b1000101110100101000000010 $
b1000101110100101000000010 -
b1000101110100101000000010 /
b1101010101001100010101011010101 '
b1000101110100101000000010 "
b1000101110100101000000010 .
b1000101110100101000000010 &
b101010 *
1!
1%
#114000
0!
0%
#115000
b1010111010101100011111010101110 $
b1010111010101100011111010101110 -
b1010111010101100011111010101110 /
b1000101110100101000000010 '
b1010111010101100011111010101110 "
b1010111010101100011111010101110 .
b1010111010101100011111010101110 &
b101011 *
1!
1%
#116000
0!
0%
#117000
b10001110111111111110100100011101 $
b10001110111111111110100100011101 -
b10001110111111111110100100011101 /
b1010111010101100011111010101110 '
b10001110111111111110100100011101 "
b10001110111111111110100100011101 .
b10001110111111111110100100011101 &
b101100 *
1!
1%
#118000
0!
0%
#119000
b1100111110001010111001011001111 $
b1100111110001010111001011001111 -
b1100111110001010111001011001111 /
b10001110111111111110100100011101 '
b1100111110001010111001011001111 "
b1100111110001010111001011001111 .
b1100111110001010111001011001111 &
b101101 *
1!
1%
#120000
0!
0%
#121000
b10010001100001000100100100100011 $
b10010001100001000100100100100011 -
b10010001100001000100100100100011 /
b1100111110001010111001011001111 '
b10010001100001000100100100100011 "
b10010001100001000100100100100011 .
b10010001100001000100100100100011 &
b101110 *
1!
1%
#122000
0!
0%
#123000
b10000101000010010110010100001010 $
b10000101000010010110010100001010 -
b10000101000010010110010100001010 /
b10010001100001000100100100100011 '
b10000101000010010110010100001010 "
b10000101000010010110010100001010 .
b10000101000010010110010100001010 &
b101111 *
1!
1%
#124000
0!
0%
#125000
b1100101011100110000101011001010 $
b1100101011100110000101011001010 -
b1100101011100110000101011001010 /
b10000101000010010110010100001010 '
b1100101011100110000101011001010 "
b1100101011100110000101011001010 .
b1100101011100110000101011001010 &
b110000 *
1!
1%
#126000
0!
0%
#127000
b11110001100010100110000111100 $
b11110001100010100110000111100 -
b11110001100010100110000111100 /
b1100101011100110000101011001010 '
b11110001100010100110000111100 "
b11110001100010100110000111100 .
b11110001100010100110000111100 &
b110001 *
1!
1%
#128000
0!
0%
#129000
b11111001011010001011110111110010 $
b11111001011010001011110111110010 -
b11111001011010001011110111110010 /
b11110001100010100110000111100 '
b11111001011010001011110111110010 "
b11111001011010001011110111110010 .
b11111001011010001011110111110010 &
b110010 *
1!
1%
#130000
0!
0%
#131000
b11000101001011100110000110001010 $
b11000101001011100110000110001010 -
b11000101001011100110000110001010 /
b11111001011010001011110111110010 '
b11000101001011100110000110001010 "
b11000101001011100110000110001010 .
b11000101001011100110000110001010 &
b110011 *
1!
1%
#132000
0!
0%
#133000
b10100000110001001011001101000001 $
b10100000110001001011001101000001 -
b10100000110001001011001101000001 /
b11000101001011100110000110001010 '
b10100000110001001011001101000001 "
b10100000110001001011001101000001 .
b10100000110001001011001101000001 &
b110100 *
1!
1%
#134000
0!
0%
#135000
b1101100010010110011010011011000 $
b1101100010010110011010011011000 -
b1101100010010110011010011011000 /
b10100000110001001011001101000001 '
b1101100010010110011010011011000 "
b1101100010010110011010011011000 .
b1101100010010110011010011011000 &
b110101 *
1!
1%
#136000
0!
0%
#137000
b10111100001000001111001101111000 $
b10111100001000001111001101111000 -
b10111100001000001111001101111000 /
b1101100010010110011010011011000 '
b10111100001000001111001101111000 "
b10111100001000001111001101111000 .
b10111100001000001111001101111000 &
b110110 *
1!
1%
#138000
0!
0%
#139000
b1000100100010100001001010001001 $
b1000100100010100001001010001001 -
b1000100100010100001001010001001 /
b10111100001000001111001101111000 '
b1000100100010100001001010001001 "
b1000100100010100001001010001001 .
b1000100100010100001001010001001 &
b110111 *
1!
1%
#140000
0!
0%
#141000
b11110101110001010000110111101011 $
b11110101110001010000110111101011 -
b11110101110001010000110111101011 /
b1000100100010100001001010001001 '
b11110101110001010000110111101011 "
b11110101110001010000110111101011 .
b11110101110001010000110111101011 &
b111000 *
1!
1%
#142000
0!
0%
#143000
b11011011000000100110010110110110 $
b11011011000000100110010110110110 -
b11011011000000100110010110110110 /
b11110101110001010000110111101011 '
b11011011000000100110010110110110 "
b11011011000000100110010110110110 .
b11011011000000100110010110110110 &
b111001 *
1!
1%
#144000
0!
0%
#145000
b11100011010010111111100111000110 $
b11100011010010111111100111000110 -
b11100011010010111111100111000110 /
b11011011000000100110010110110110 '
b11100011010010111111100111000110 "
b11100011010010111111100111000110 .
b11100011010010111111100111000110 &
b111010 *
1!
1%
#146000
0!
0%
#147000
b11010111000101010001001110101110 $
b11010111000101010001001110101110 -
b11010111000101010001001110101110 /
b11100011010010111111100111000110 '
b11010111000101010001001110101110 "
b11010111000101010001001110101110 .
b11010111000101010001001110101110 &
b111011 *
1!
1%
#148000
0!
0%
#149000
b1011110011101010000001010111100 $
b1011110011101010000001010111100 -
b1011110011101010000001010111100 /
b11010111000101010001001110101110 '
b1011110011101010000001010111100 "
b1011110011101010000001010111100 .
b1011110011101010000001010111100 &
b111100 *
1!
1%
#150000
0!
0%
#151000
b10010101000011111101110100101010 $
b10010101000011111101110100101010 -
b10010101000011111101110100101010 /
b1011110011101010000001010111100 '
b10010101000011111101110100101010 "
b10010101000011111101110100101010 .
b10010101000011111101110100101010 &
b111101 *
1!
1%
#152000
0!
0%
#153000
b101110101111001101000001011 $
b101110101111001101000001011 -
b101110101111001101000001011 /
b10010101000011111101110100101010 '
b101110101111001101000001011 "
b101110101111001101000001011 .
b101110101111001101000001011 &
b111110 *
1!
1%
#154000
0!
0%
#155000
b111000100101111011111001110001 $
b111000100101111011111001110001 -
b111000100101111011111001110001 /
b101110101111001101000001011 '
b111000100101111011111001110001 "
b111000100101111011111001110001 .
b111000100101111011111001110001 &
b111111 *
1!
1%
#156000
0!
0%
#157000
b11000010111100100100000110000101 $
b11000010111100100100000110000101 -
b11000010111100100100000110000101 /
b111000100101111011111001110001 '
b11000010111100100100000110000101 "
b11000010111100100100000110000101 .
b11000010111100100100000110000101 &
b1000000 *
1!
1%
#158000
0!
0%
#159000
b10100111111100100101010101001111 $
b10100111111100100101010101001111 -
b10100111111100100101010101001111 /
b11000010111100100100000110000101 '
b10100111111100100101010101001111 "
b10100111111100100101010101001111 .
b10100111111100100101010101001111 &
b1000001 *
1!
1%
#160000
0!
0%
#161000
b11101110011000110000000111011 $
b11101110011000110000000111011 -
b11101110011000110000000111011 /
b10100111111100100101010101001111 '
b11101110011000110000000111011 "
b11101110011000110000000111011 .
b11101110011000110000000111011 &
b1000010 *
1!
1%
#162000
0!
0%
#163000
b10011101000001100011001100111010 $
b10011101000001100011001100111010 -
b10011101000001100011001100111010 /
b11101110011000110000000111011 '
b10011101000001100011001100111010 "
b10011101000001100011001100111010 .
b10011101000001100011001100111010 &
b1000011 *
1!
1%
#164000
0!
0%
#165000
b111111001000110011001001111110 $
b111111001000110011001001111110 -
b111111001000110011001001111110 /
b10011101000001100011001100111010 '
b111111001000110011001001111110 "
b111111001000110011001001111110 .
b111111001000110011001001111110 &
b1000100 *
1!
1%
#166000
0!
0%
#167000
b10001010101010100100101100010101 $
b10001010101010100100101100010101 -
b10001010101010100100101100010101 /
b111111001000110011001001111110 '
b10001010101010100100101100010101 "
b10001010101010100100101100010101 .
b10001010101010100100101100010101 &
b1000101 *
1!
1%
#168000
0!
0%
#169000
b11111000110110011001101111110001 $
b11111000110110011001101111110001 -
b11111000110110011001101111110001 /
b10001010101010100100101100010101 '
b11111000110110011001101111110001 "
b11111000110110011001101111110001 .
b11111000110110011001101111110001 &
b1000110 *
1!
1%
#170000
0!
0%
#171000
b11101100100111000100101111011001 $
b11101100100111000100101111011001 -
b11101100100111000100101111011001 /
b11111000110110011001101111110001 '
b11101100100111000100101111011001 "
b11101100100111000100101111011001 .
b11101100100111000100101111011001 &
b1000111 *
1!
1%
#172000
0!
0%
#173000
b10110001001000110000011101100010 $
b10110001001000110000011101100010 -
b10110001001000110000011101100010 /
b11101100100111000100101111011001 '
b10110001001000110000011101100010 "
b10110001001000110000011101100010 .
b10110001001000110000011101100010 &
b1001000 *
1!
1%
#174000
0!
0%
#175000
b10100110001101011111101101001100 $
b10100110001101011111101101001100 -
b10100110001101011111101101001100 /
b10110001001000110000011101100010 '
b10100110001101011111101101001100 "
b10100110001101011111101101001100 .
b10100110001101011111101101001100 &
b1001001 *
1!
1%
#176000
0!
0%
#177000
b11001111101000010101010110011111 $
b11001111101000010101010110011111 -
b11001111101000010101010110011111 /
b10100110001101011111101101001100 '
b11001111101000010101010110011111 "
b11001111101000010101010110011111 .
b11001111101000010101010110011111 &
b1001010 *
1!
1%
#178000
0!
0%
#179000
b11000111101110011010000110001111 $
b11000111101110011010000110001111 -
b11000111101110011010000110001111 /
b11001111101000010101010110011111 '
b11000111101110011010000110001111 "
b11000111101110011010000110001111 .
b11000111101110011010000110001111 &
b1001011 *
1!
1%
#180000
0!
0%
#181000
b11111100011011011010100111111000 $
b11111100011011011010100111111000 -
b11111100011011011010100111111000 /
b11000111101110011010000110001111 '
b11111100011011011010100111111000 "
b11111100011011011010100111111000 .
b11111100011011011010100111111000 &
b1001100 *
1!
1%
#182000
0!
0%
#183000
b1011011110011010110000010110111 $
b1011011110011010110000010110111 -
b1011011110011010110000010110111 /
b11111100011011011010100111111000 '
b1011011110011010110000010110111 "
b1011011110011010110000010110111 .
b1011011110011010110000010110111 &
b1001101 *
1!
1%
#184000
0!
0%
#185000
b1001111110001000101011010011111 $
b1001111110001000101011010011111 -
b1001111110001000101011010011111 /
b1011011110011010110000010110111 '
b1001111110001000101011010011111 "
b1001111110001000101011010011111 .
b1001111110001000101011010011111 &
b1001110 *
1!
1%
#186000
0!
0%
#187000
b101110011111011001010001011100 $
b101110011111011001010001011100 -
b101110011111011001010001011100 /
b1001111110001000101011010011111 '
b101110011111011001010001011100 "
b101110011111011001010001011100 .
b101110011111011001010001011100 &
b1001111 *
1!
1%
#188000
0!
0%
#189000
b101101110010111100000001011011 $
b101101110010111100000001011011 -
b101101110010111100000001011011 /
b101110011111011001010001011100 '
b101101110010111100000001011011 "
b101101110010111100000001011011 .
b101101110010111100000001011011 &
b1010000 *
1!
1%
#190000
0!
0%
#191000
b11000100110111100011011110001001 $
b11000100110111100011011110001001 -
b11000100110111100011011110001001 /
b101101110010111100000001011011 '
b11000100110111100011011110001001 "
b11000100110111100011011110001001 .
b11000100110111100011011110001001 &
b1010001 *
1!
1%
#192000
0!
0%
#193000
b100100101011100011001001001001 $
b100100101011100011001001001001 -
b100100101011100011001001001001 /
b11000100110111100011011110001001 '
b100100101011100011001001001001 "
b100100101011100011001001001001 .
b100100101011100011001001001001 &
b1010010 *
1!
1%
#194000
0!
0%
#195000
b1101000001000110011111011010000 $
b1101000001000110011111011010000 -
b1101000001000110011111011010000 /
b100100101011100011001001001001 '
b1101000001000110011111011010000 "
b1101000001000110011111011010000 .
b1101000001000110011111011010000 &
b1010011 *
1!
1%
#196000
0!
0%
#197000
b1101011111111101100000011010111 $
b1101011111111101100000011010111 -
b1101011111111101100000011010111 /
b1101000001000110011111011010000 '
b1101011111111101100000011010111 "
b1101011111111101100000011010111 .
b1101011111111101100000011010111 &
b1010100 *
1!
1%
#198000
0!
0%
#199000
b101000110001111111110001010001 $
b101000110001111111110001010001 -
b101000110001111111110001010001 /
b1101011111111101100000011010111 '
b101000110001111111110001010001 "
b101000110001111111110001010001 .
b101000110001111111110001010001 &
b1010101 *
1!
1%
#200000
0!
0%
#201000
b11001011001000010010111110010110 $
b11001011001000010010111110010110 -
b11001011001000010010111110010110 /
b101000110001111111110001010001 '
b11001011001000010010111110010110 "
b11001011001000010010111110010110 .
b11001011001000010010111110010110 &
b1010110 *
1!
1%
#202000
0!
0%
#203000
b10000110000111010111111100001100 $
b10000110000111010111111100001100 -
b10000110000111010111111100001100 /
b11001011001000010010111110010110 '
b10000110000111010111111100001100 "
b10000110000111010111111100001100 .
b10000110000111010111111100001100 &
b1010111 *
1!
1%
#204000
0!
0%
#205000
b1100001001011001100111011000010 $
b1100001001011001100111011000010 -
b1100001001011001100111011000010 /
b10000110000111010111111100001100 '
b1100001001011001100111011000010 "
b1100001001011001100111011000010 .
b1100001001011001100111011000010 &
b1011000 *
1!
1%
#206000
0!
0%
#207000
b11100100010101111110110111001000 $
b11100100010101111110110111001000 -
b11100100010101111110110111001000 /
b1100001001011001100111011000010 '
b11100100010101111110110111001000 "
b11100100010101111110110111001000 .
b11100100010101111110110111001000 &
b1011001 *
1!
1%
#208000
0!
0%
#209000
b111011100000100101101001110111 $
b111011100000100101101001110111 -
b111011100000100101101001110111 /
b11100100010101111110110111001000 '
b111011100000100101101001110111 "
b111011100000100101101001110111 .
b111011100000100101101001110111 &
b1011010 *
1!
1%
#210000
0!
0%
#211000
b10011110111100101110110100111101 $
b10011110111100101110110100111101 -
b10011110111100101110110100111101 /
b111011100000100101101001110111 '
b10011110111100101110110100111101 "
b10011110111100101110110100111101 .
b10011110111100101110110100111101 &
b1011011 *
1!
1%
#212000
0!
0%
#213000
b10001001000011001101101100010010 $
b10001001000011001101101100010010 -
b10001001000011001101101100010010 /
b10011110111100101110110100111101 '
b10001001000011001101101100010010 "
b10001001000011001101101100010010 .
b10001001000011001101101100010010 &
b1011100 *
1!
1%
#214000
0!
0%
#215000
b111111000001010000000001111110 $
b111111000001010000000001111110 -
b111111000001010000000001111110 /
b10001001000011001101101100010010 '
b111111000001010000000001111110 "
b111111000001010000000001111110 .
b111111000001010000000001111110 &
b1011101 *
1!
1%
#216000
0!
0%
#217000
b10110110111001011000000101101101 $
b10110110111001011000000101101101 -
b10110110111001011000000101101101 /
b111111000001010000000001111110 '
b10110110111001011000000101101101 "
b10110110111001011000000101101101 .
b10110110111001011000000101101101 &
b1011110 *
1!
1%
#218000
0!
0%
#219000
b10011100110110011110011100111001 $
b10011100110110011110011100111001 -
b10011100110110011110011100111001 /
b10110110111001011000000101101101 '
b10011100110110011110011100111001 "
b10011100110110011110011100111001 .
b10011100110110011110011100111001 &
b1011111 *
1!
1%
#220000
0!
0%
#221000
b10001111110100101000111100011111 $
b10001111110100101000111100011111 -
b10001111110100101000111100011111 /
b10011100110110011110011100111001 '
b10001111110100101000111100011111 "
b10001111110100101000111100011111 .
b10001111110100101000111100011111 &
b1100000 *
1!
1%
#222000
0!
0%
#223000
b1101001111010111111011011010011 $
b1101001111010111111011011010011 -
b1101001111010111111011011010011 /
b10001111110100101000111100011111 '
b1101001111010111111011011010011 "
b1101001111010111111011011010011 .
b1101001111010111111011011010011 &
b1100001 *
1!
1%
#224000
0!
0%
#225000
b11000010110110010010111110000101 $
b11000010110110010010111110000101 -
b11000010110110010010111110000101 /
b1101001111010111111011011010011 '
b11000010110110010010111110000101 "
b11000010110110010010111110000101 .
b11000010110110010010111110000101 &
b1100010 *
1!
1%
#226000
0!
0%
#227000
b111100000101001000100001111000 $
b111100000101001000100001111000 -
b111100000101001000100001111000 /
b11000010110110010010111110000101 '
b111100000101001000100001111000 "
b111100000101001000100001111000 .
b111100000101001000100001111000 &
b1100011 *
1!
1%
#228000
0!
0%
#229000
b10101101110110100101100101011011 $
b10101101110110100101100101011011 -
b10101101110110100101100101011011 /
b111100000101001000100001111000 '
b10101101110110100101100101011011 "
b10101101110110100101100101011011 .
b10101101110110100101100101011011 &
b1100100 *
1!
1%
#230000
0!
0%
#231000
b10100100100010110100101101001001 $
b10100100100010110100101101001001 -
b10100100100010110100101101001001 /
b10101101110110100101100101011011 '
b10100100100010110100101101001001 "
b10100100100010110100101101001001 .
b10100100100010110100101101001001 &
b1100101 *
1!
1%
#232000
0!
0%
#233000
b11111111100101010111000111111 $
b11111111100101010111000111111 -
b11111111100101010111000111111 /
b10100100100010110100101101001001 '
b11111111100101010111000111111 "
b11111111100101010111000111111 .
b11111111100101010111000111111 &
b1100110 *
1!
1%
#234000
0!
0%
#235000
b10010101000011001010111100101010 $
b10010101000011001010111100101010 -
b10010101000011001010111100101010 /
b11111111100101010111000111111 '
b10010101000011001010111100101010 "
b10010101000011001010111100101010 .
b10010101000011001010111100101010 &
b1100111 *
1!
1%
#236000
0!
0%
#237000
b10101100000101010110001101011000 $
b10101100000101010110001101011000 -
b10101100000101010110001101011000 /
b10010101000011001010111100101010 '
b10101100000101010110001101011000 "
b10101100000101010110001101011000 .
b10101100000101010110001101011000 &
b1101000 *
1!
1%
#238000
0!
0%
#239000
b1000011001111110011100010000110 $
b1000011001111110011100010000110 -
b1000011001111110011100010000110 /
b10101100000101010110001101011000 '
b1000011001111110011100010000110 "
b1000011001111110011100010000110 .
b1000011001111110011100010000110 &
b1101001 *
1!
1%
#240000
0!
0%
#241000
b1000111000110100000110010001110 $
b1000111000110100000110010001110 -
b1000111000110100000110010001110 /
b1000011001111110011100010000110 '
b1000111000110100000110010001110 "
b1000111000110100000110010001110 .
b1000111000110100000110010001110 &
b1101010 *
1!
1%
#242000
0!
0%
#243000
b1001110001011111111001010011100 $
b1001110001011111111001010011100 -
b1001110001011111111001010011100 /
b1000111000110100000110010001110 '
b1001110001011111111001010011100 "
b1001110001011111111001010011100 .
b1001110001011111111001010011100 &
b1101011 *
1!
1%
#244000
0!
0%
#245000
b11111101001101011001100111111010 $
b11111101001101011001100111111010 -
b11111101001101011001100111111010 /
b1001110001011111111001010011100 '
b11111101001101011001100111111010 "
b11111101001101011001100111111010 .
b11111101001101011001100111111010 &
b1101100 *
1!
1%
#246000
0!
0%
